{
  "title": "AXBoot :: Advanced Web Application Development Framework",
  "copyrights": "BROANEX MES SYSTEM © 2018",
  "logo": {
    "header": "/assets/images/broanex_logo.png",
    "login": "/assets/images/broanex_logo.png",
    "logo": "logo.png"
  },
  "background": {
    "login": "/assets/images/login-bg.jpg"
  },
  "layout": {
    "leftSideMenu": "visible"
  },
  "sessionCookie": "541a8d68-65ae-4ffb-9886-5fa2ff4dcd1d",
  "extendedCss": [
    "/assets/css/axboot.css"
  ],
  "extendedCssforIE9": [
    "/assets/css/axboot-01.css",
    "/assets/css/axboot-02.css",
    "/assets/css/axboot-03.css"
  ]
}
